{
  "@context": {
    "cred": "https://www.w3.org/2018/credentials/#",
    "gax-service": "https://schemas.abc-federation.gxfs.fr/wip/vocab/service#",
    "gax-compliance": "https://schemas.abc-federation.gxfs.fr/wip/vocab/compliance#",
    "xsd": "http://www.w3.org/2001/XMLSchema#",
    "gax-validation": "https://schemas.abc-federation.gxfs.fr/wip/vocab/validation#",
    "vcard": "http://www.w3.org/2006/vcard/ns#",
    "gax-core": "https://schemas.abc-federation.gxfs.fr/wip/vocab/core#",
    "gax-participant": "https://schemas.abc-federation.gxfs.fr/wip/vocab/participant#",
    "dct": "http://purl.org/dc/terms/",
    "sh": "http://www.w3.org/ns/shacl#",
    "gax-node": "https://schemas.abc-federation.gxfs.fr/wip/vocab/node#",
    "dcat": "http://www.w3.org/ns/dcat#",
    "gax-resource": "https://schemas.abc-federation.gxfs.fr/wip/vocab/resource#"
  },
  "@id": "did:web:ovh.provider.gxfs.fr/public/json-ld/provider.json",
  "@type": "gax-participant:Provider",
  "gax-participant:hasLocations": [
    {
      "@id": "did:web:ovh.provider.gxfs.fr/public/json-ld/location/09.json",
      "@type": "gax-participant:Location"
    },
    {
      "@id": "did:web:ovh.provider.gxfs.fr/public/json-ld/location/12.json",
      "@type": "gax-participant:Location"
    },
    {
      "@id": "did:web:ovh.provider.gxfs.fr/public/json-ld/location/13.json",
      "@type": "gax-participant:Location"
    }
  ],
  "gax-participant:hasServiceOffering": [
    {
      "@id": "did:web:ovh.provider.gxfs.fr/public/json-ld/service-offering/S-01.json",
      "@type":"gax-service:ServiceOffering"
    },
    {
      "@id": "did:web:ovh.provider.gxfs.fr/public/json-ld/service-offering/S-02.json",
      "@type": "xsd-string"
    }
  ],
  "gax-participant:registrationNumber": {
    "@value": "424 761 419 00045",
    "@type": "xsd:string"
  },
  "gax-participant:legalAddress": {
    "@type": "vcard:Address",
    "vcard:country-name": {
      "@value": "FR",
      "@type": "xsd:string"
    },
    "vcard:street-address": {
      "@value": "2 Rue Kellermann",
      "@type": "xsd:string"
    },
    "vcard:postal-code": {
      "@value": "59100",
      "@type": "xsd:string"
    },
    "vcard:locality": {
      "@value": "Roubaix",
      "@type": "xsd:string"
    }
  },
  "gax-participant:headquarterAddress": {
    "@type": "vcard:Address",
    "vcard:country-name": {
      "@value": "FR",
      "@type": "xsd:string"
    },
    "vcard:street-address": {
      "@value": "2 Rue Kellermann",
      "@type": "xsd:string"
    },
    "vcard:postal-code": {
      "@value": "59100",
      "@type": "xsd:string"
    },
    "vcard:locality": {
      "@value": "Roubaix",
      "@type": "xsd:string"
    }
  },
  "gax-participant:leiCode": {
    "@value": "969500Q2MA9VBQ8BG884",
    "@type": "xsd:string"
  },
  "gax-participant:termsAndConditions": {
    "@type": "gax-core:TermsAndConditions",
    "gax-core:Value": {
      "@value": "https://www.ovhcloud.com/fr/terms-and-conditions/",
      "@type": "xsd:anyURI"
    },
    "gax-core:hash": {
      "@value": "31296ef8727fc63e89213f3e5ab928bae7699b6dade0af5e443b8ad2623639ee8e6176696a1fa125ccfa7fa55465463b6424d3f54435d6a2beafd79a91425b0a",
      "@type": "xsd:string"
    }
  }
}